A Multimodel Analysis of Income, Physical Activity, and Body Composition in U.S. Adults - CODES – Home
…
cat("\nRQ4 - Top predictors by method (top 15 each):\n")

RQ4 - Top predictors by method (top 15 each):

print(rank_table)

# A tibble: 52 × 4
   feature                    importance method            rank
   <chr>                           <dbl> <chr>            <int>
 1 x_train_scrace6                 4.39  MLR_abs_std_coef     1
 2 x_train_scsexFemale             2.14  MLR_abs_std_coef     2
 3 x_train_scage                   2.13  MLR_abs_std_coef     3
 4 x_train_sceducation4            1.71  MLR_abs_std_coef     4
 5 x_train_scrace2                 1.20  MLR_abs_std_coef     5
 6 x_train_sceducation3            1.05  MLR_abs_std_coef     6
 7 x_train_scmvpa_equiv_minwk      0.943 MLR_abs_std_coef     7
 8 x_train_scrace4                 0.871 MLR_abs_std_coef     8
 9 x_train_scrace3                 0.425 MLR_abs_std_coef     9
10 x_train_scrace7                 0.302 MLR_abs_std_coef    10
# ℹ 42 more rows
…
cat("\nRQ4 - Cross-method consensus (features appearing in multiple 
    top-15 lists):\n")

RQ4 - Cross-method consensus (features appearing in multiple 
    top-15 lists):

print(consensus)

# A tibble: 26 × 4
   feature          methods_present                          n_methods best_rank
   <chr>            <chr>                                        <int>     <int>
 1 age              Lasso_abs_coef | RF_importance | Ridge_…         3         1
 2 race6            Lasso_abs_coef | RF_importance | Ridge_…         3         1
 3 indfmpir         Lasso_abs_coef | RF_importance | Ridge_…         3         2
 4 sexFemale        Lasso_abs_coef | RF_importance | Ridge_…         3         2
 5 mvpa_equiv_minwk Lasso_abs_coef | RF_importance | Ridge_…         3         3
 6 education4       Lasso_abs_coef | RF_importance | Ridge_…         3         4
 7 race2            Lasso_abs_coef | RF_importance | Ridge_…         3         5
 8 race4            Lasso_abs_coef | RF_importance | Ridge_…         3         6
 9 education3       Lasso_abs_coef | RF_importance | Ridge_…         3         7
10 race3            Lasso_abs_coef | RF_importance | Ridge_…         3         7
# ℹ 16 more rows
…
